{
    "comments":[
    {
        "id": 1,
        "author": "Clu",
        "body": "Just say no to love!",
        "avatarUrl": "https://robohash.org/a.png"
    }, {
        "id": 2,
        "author": "Anne Droid",
        "body": "I wanna know what love is...",
        "avatarUrl": "https://robohash.org/b.png"
    }
    ]
}